Homework 3
…
iris |> 
  as_tibble() |>
  select(starts_with("Petal"), Species) |>
  filter(Petal.Length < 1.55) |>
  arrange(Species)

# A tibble: 37 × 3
   Petal.Length Petal.Width Species
          <dbl>       <dbl> <fct>  
 1          1.4         0.2 setosa 
 2          1.4         0.2 setosa 
 3          1.3         0.2 setosa 
 4          1.5         0.2 setosa 
 5          1.4         0.2 setosa 
 6          1.4         0.3 setosa 
 7          1.5         0.2 setosa 
 8          1.4         0.2 setosa 
 9          1.5         0.1 setosa 
10          1.5         0.2 setosa 
# ℹ 27 more rows
…
glass <- read_csv("https://www4.stat.ncsu.edu/~online/datasets/glass.data", 
                  col_names = c("Id", "RI", "Na", "Mg", "Al", "Si", "K", "Ca", "Ba", "Fe","Type_of_Glass"))

Rows: 214 Columns: 11
── Column specification ────────────────────────────────────────────────────────
Delimiter: ","
dbl (11): Id, RI, Na, Mg, Al, Si, K, Ca, Ba, Fe, Type_of_Glass

ℹ Use `spec()` to retrieve the full column specification for this data.
ℹ Specify the column types or set `show_col_types = FALSE` to quiet this message.

glass

# A tibble: 214 × 11
      Id    RI    Na    Mg    Al    Si     K    Ca    Ba    Fe Type_of_Glass
   <dbl> <dbl> <dbl> <dbl> <dbl> <dbl> <dbl> <dbl> <dbl> <dbl>         <dbl>
 1     1  1.52  13.6  4.49  1.1   71.8  0.06  8.75     0  0                1
 2     2  1.52  13.9  3.6   1.36  72.7  0.48  7.83     0  0                1
 3     3  1.52  13.5  3.55  1.54  73.0  0.39  7.78     0  0                1
 4     4  1.52  13.2  3.69  1.29  72.6  0.57  8.22     0  0                1
 5     5  1.52  13.3  3.62  1.24  73.1  0.55  8.07     0  0                1
 6     6  1.52  12.8  3.61  1.62  73.0  0.64  8.07     0  0.26             1
 7     7  1.52  13.3  3.6   1.14  73.1  0.58  8.17     0  0                1
 8     8  1.52  13.2  3.61  1.05  73.2  0.57  8.24     0  0                1
 9     9  1.52  14.0  3.58  1.37  72.1  0.56  8.3      0  0                1
10    10  1.52  13    3.6   1.36  73.0  0.57  8.4      0  0.11             1
# ℹ 204 more rows

Data was successfully read in and converted to a tibble containing 214 rows.

2.

glass |>
  mutate(Type_of_Glass = factor(Type_of_Glass,
                                levels = c(1,2,3,4,5,6,7),
                                labels = c("building_windows_float_processed","building_windows_non_float_processed","vehicle_windows_float_processed","vehicle_windows_non_float_processed","containers","tableware","headlamps")))

# A tibble: 214 × 11
      Id    RI    Na    Mg    Al    Si     K    Ca    Ba    Fe Type_of_Glass    
   <dbl> <dbl> <dbl> <dbl> <dbl> <dbl> <dbl> <dbl> <dbl> <dbl> <fct>            
 1     1  1.52  13.6  4.49  1.1   71.8  0.06  8.75     0  0    building_windows…
 2     2  1.52  13.9  3.6   1.36  72.7  0.48  7.83     0  0    building_windows…
 3     3  1.52  13.5  3.55  1.54  73.0  0.39  7.78     0  0    building_windows…
 4     4  1.52  13.2  3.69  1.29  72.6  0.57  8.22     0  0    building_windows…
 5     5  1.52  13.3  3.62  1.24  73.1  0.55  8.07     0  0    building_windows…
 6     6  1.52  12.8  3.61  1.62  73.0  0.64  8.07     0  0.26 building_windows…
 7     7  1.52  13.3  3.6   1.14  73.1  0.58  8.17     0  0    building_windows…
 8     8  1.52  13.2  3.61  1.05  73.2  0.57  8.24     0  0    building_windows…
 9     9  1.52  14.0  3.58  1.37  72.1  0.56  8.3      0  0    building_windows…
10    10  1.52  13    3.6   1.36  73.0  0.57  8.4      0  0.11 building_windows…
# ℹ 204 more rows

Used the factor function to convert the levels of Type_of_Glass from numeric values 1-7 to character strings. The tibble still contains 214 rows

3.

glass |>
  mutate(Type_of_Glass = factor(Type_of_Glass,
                                levels = c(1,2,3,4,5,6,7),
                                labels = c("building_windows_float_processed","building_windows_non_float_processed","vehicle_windows_float_processed","vehicle_windows_non_float_processed","containers","tableware","headlamps"))) |>
  filter((Fe < 0.2) & (Type_of_Glass %in% c("tableware","headlamps")))

# A tibble: 38 × 11
      Id    RI    Na    Mg    Al    Si     K    Ca    Ba    Fe Type_of_Glass
   <dbl> <dbl> <dbl> <dbl> <dbl> <dbl> <dbl> <dbl> <dbl> <dbl> <fct>        
 1   177  1.52  14    2.39  1.56  72.4  0     9.57  0        0 tableware    
 2   178  1.52  13.8  2.41  1.19  72.8  0     9.77  0        0 tableware    
 3   179  1.52  14.5  2.24  1.62  72.4  0     9.26  0        0 tableware    
 4   180  1.52  14.1  2.19  1.66  72.7  0     9.32  0        0 tableware    
 5   181  1.51  14.4  1.74  1.54  74.6  0     7.59  0        0 tableware    
 6   182  1.52  15.0  0.78  1.74  72.5  0     9.95  0        0 tableware    
 7   183  1.52  14.2  0     2.09  72.7  0    10.9   0        0 tableware    
 8   184  1.52  14.6  0     0.56  73.5  0    11.2   0        0 tableware    
 9   185  1.51  17.4  0     0.34  75.4  0     6.65  0        0 tableware    
10   186  1.51  13.7  3.2   1.81  72.8  1.76  5.43  1.19     0 headlamps    
# ℹ 28 more rows
…
yeast

# A tibble: 1,484 × 10
   seq_name     mcg   gvh   alm   mit   erl   pox   vac   nuc class
   <chr>      <dbl> <dbl> <dbl> <dbl> <dbl> <dbl> <dbl> <dbl> <chr>
 1 ADT1_YEAST  0.58  0.61  0.47  0.13   0.5   0    0.48  0.22 MIT  
 2 ADT2_YEAST  0.43  0.67  0.48  0.27   0.5   0    0.53  0.22 MIT  
 3 ADT3_YEAST  0.64  0.62  0.49  0.15   0.5   0    0.53  0.22 MIT  
 4 AAR2_YEAST  0.58  0.44  0.57  0.13   0.5   0    0.54  0.22 NUC  
 5 AATM_YEAST  0.42  0.44  0.48  0.54   0.5   0    0.48  0.22 MIT  
 6 AATC_YEAST  0.51  0.4   0.56  0.17   0.5   0.5  0.49  0.22 CYT  
 7 ABC1_YEAST  0.5   0.54  0.48  0.65   0.5   0    0.53  0.22 MIT  
 8 BAF1_YEAST  0.48  0.45  0.59  0.2    0.5   0    0.58  0.34 NUC  
 9 ABF2_YEAST  0.55  0.5   0.66  0.36   0.5   0    0.49  0.22 MIT  
10 ABP1_YEAST  0.4   0.39  0.6   0.15   0.5   0    0.58  0.3  CYT  
# ℹ 1,474 more rows

The data is space delimited (2 spaces), so the read_table() function was used.

2.

yeast |>
  select(-seq_name,-nuc)

# A tibble: 1,484 × 8
     mcg   gvh   alm   mit   erl   pox   vac class
   <dbl> <dbl> <dbl> <dbl> <dbl> <dbl> <dbl> <chr>
 1  0.58  0.61  0.47  0.13   0.5   0    0.48 MIT  
 2  0.43  0.67  0.48  0.27   0.5   0    0.53 MIT  
 3  0.64  0.62  0.49  0.15   0.5   0    0.53 MIT  
 4  0.58  0.44  0.57  0.13   0.5   0    0.54 NUC  
 5  0.42  0.44  0.48  0.54   0.5   0    0.48 MIT  
 6  0.51  0.4   0.56  0.17   0.5   0.5  0.49 CYT  
 7  0.5   0.54  0.48  0.65   0.5   0    0.53 MIT  
 8  0.48  0.45  0.59  0.2    0.5   0    0.58 NUC  
 9  0.55  0.5   0.66  0.36   0.5   0    0.49 MIT  
10  0.4   0.39  0.6   0.15   0.5   0    0.58 CYT  
# ℹ 1,474 more rows

De-selecting the 2 columns was done with the - operator rather than explicitly selecting the other 8 columns.

3.

yeast |>
  select(-seq_name,-nuc) |>
  mutate(across(where(is.numeric), .fns = list(mean = mean, median = median), .names = "{.fn}_{.col}"))

# A tibble: 1,484 × 22
     mcg   gvh   alm   mit   erl   pox   vac class mean_mcg median_mcg mean_gvh
   <dbl> <dbl> <dbl> <dbl> <dbl> <dbl> <dbl> <chr>    <dbl>      <dbl>    <dbl>
 1  0.58  0.61  0.47  0.13   0.5   0    0.48 MIT      0.500       0.49    0.500
 2  0.43  0.67  0.48  0.27   0.5   0    0.53 MIT      0.500       0.49    0.500
 3  0.64  0.62  0.49  0.15   0.5   0    0.53 MIT      0.500       0.49    0.500
 4  0.58  0.44  0.57  0.13   0.5   0    0.54 NUC      0.500       0.49    0.500
 5  0.42  0.44  0.48  0.54   0.5   0    0.48 MIT      0.500       0.49    0.500
 6  0.51  0.4   0.56  0.17   0.5   0.5  0.49 CYT      0.500       0.49    0.500
 7  0.5   0.54  0.48  0.65   0.5   0    0.53 MIT      0.500       0.49    0.500
 8  0.48  0.45  0.59  0.2    0.5   0    0.58 NUC      0.500       0.49    0.500
 9  0.55  0.5   0.66  0.36   0.5   0    0.49 MIT      0.500       0.49    0.500
10  0.4   0.39  0.6   0.15   0.5   0    0.58 CYT      0.500       0.49    0.500
# ℹ 1,474 more rows
# ℹ 11 more variables: median_gvh <dbl>, mean_alm <dbl>, median_alm <dbl>,
#   mean_mit <dbl>, median_mit <dbl>, mean_erl <dbl>, median_erl <dbl>,
#   mean_pox <dbl>, median_pox <dbl>, mean_vac <dbl>, median_vac <dbl>

The across function was used to access all of the numeric columns and create new columns where a function (mean or median) was applied.

Task 3: Combining Excel and Delimited Data

1.

library(readxl)
wines <- read_excel("../white-wine.xlsx", sheet = 1)
wines

# A tibble: 4,898 × 12
   `fixed acidity` `volatile acidity` `citric acid` `residual sugar` chlorides
             <dbl>              <dbl>         <dbl>            <dbl>     <dbl>
 1               7               0.27          0.36             20.7     0.045
 2              63               0.3           0.34              1.6     0.049
 3              81               0.28          0.4               6.9     0.05 
 4              72               0.23          0.32              8.5     0.058
 5              72               0.23          0.32              8.5     0.058
 6              81               0.28          0.4               6.9     0.05 
 7              62               0.32          0.16              7       0.045
 8               7               0.27          0.36             20.7     0.045
 9              63               0.3           0.34              1.6     0.049
10              81               0.22          0.43              1.5     0.044
# ℹ 4,888 more rows
# ℹ 7 more variables: `free sulfur dioxide` <dbl>,
#   `total sulfur dioxide` <dbl>, density <dbl>, pH <dbl>, sulphates <dbl>,
#   alcohol <dbl>, quality <dbl>
…
colnames(wines) <- names_wine$Variables
wines

# A tibble: 4,898 × 12
   fixed_acidity volatile_acidity citric_acid residual_sugar chlorides
           <dbl>            <dbl>       <dbl>          <dbl>     <dbl>
 1             7             0.27        0.36           20.7     0.045
 2            63             0.3         0.34            1.6     0.049
 3            81             0.28        0.4             6.9     0.05 
 4            72             0.23        0.32            8.5     0.058
 5            72             0.23        0.32            8.5     0.058
 6            81             0.28        0.4             6.9     0.05 
 7            62             0.32        0.16            7       0.045
 8             7             0.27        0.36           20.7     0.045
 9            63             0.3         0.34            1.6     0.049
10            81             0.22        0.43            1.5     0.044
# ℹ 4,888 more rows
# ℹ 7 more variables: free_sulfur_dioxide <dbl>, total_sulfur_dioxide <dbl>,
#   density <dbl>, pH <dbl>, sulphates <dbl>, alcohol <dbl>, quality <dbl>
…
reds <- read_delim("../red-wine.csv", delim = ";")

Rows: 1599 Columns: 12
── Column specification ────────────────────────────────────────────────────────
Delimiter: ";"
dbl (12): fixed acidity, volatile acidity, citric acid, residual sugar, chlo...

ℹ Use `spec()` to retrieve the full column specification for this data.
ℹ Specify the column types or set `show_col_types = FALSE` to quiet this message.

colnames(reds) = names_wine$Variables
reds <- reds |> mutate(type = "red")
reds

# A tibble: 1,599 × 13
   fixed_acidity volatile_acidity citric_acid residual_sugar chlorides
           <dbl>            <dbl>       <dbl>          <dbl>     <dbl>
 1           7.4             0.7         0               1.9     0.076
 2           7.8             0.88        0               2.6     0.098
 3           7.8             0.76        0.04            2.3     0.092
 4          11.2             0.28        0.56            1.9     0.075
 5           7.4             0.7         0               1.9     0.076
 6           7.4             0.66        0               1.8     0.075
 7           7.9             0.6         0.06            1.6     0.069
 8           7.3             0.65        0               1.2     0.065
 9           7.8             0.58        0.02            2       0.073
10           7.5             0.5         0.36            6.1     0.071
# ℹ 1,589 more rows
# ℹ 8 more variables: free_sulfur_dioxide <dbl>, total_sulfur_dioxide <dbl>,
#   density <dbl>, pH <dbl>, sulphates <dbl>, alcohol <dbl>, quality <dbl>,
#   type <chr>

5.

all_wines <- dplyr::bind_rows(wines,reds)

There were 4,898 rows in the white wine dataset and 1,599 rows in the red wine dataset. When these datasets are concatenated, they should have 6,497 rows. This is confirmed with the all_wines tibble.

6.

all_wines |>
  filter((quality > 6.5) & (alcohol < 132))

# A tibble: 1,206 × 13
   fixed_acidity volatile_acidity citric_acid residual_sugar chlorides
           <dbl>            <dbl>       <dbl>          <dbl>     <dbl>
 1            66             0.16        0.4             1.5     0.044
 2            66             0.17        0.38            1.5     0.032
 3            62             0.66        0.48            1.2     0.029
 4            62             0.66        0.48            1.2     0.029
 5            64             0.31        0.38            2.9     0.038
 6            68             0.26        0.42            1.7     0.049
 7            72             0.32        0.36            2       0.033
 8            74             0.18        0.31            1.4     0.058
 9            66             0.25        0.29            1.1     0.068
10            62             0.16        0.33            1.1     0.057
# ℹ 1,196 more rows
# ℹ 8 more variables: free_sulfur_dioxide <dbl>, total_sulfur_dioxide <dbl>,
#   density <dbl>, pH <dbl>, sulphates <dbl>, alcohol <dbl>, quality <dbl>,
#   type <chr>

After filtering the tibble with these conditions, there are 1,206 rows; down from the original number of 6,497 rows.

7.

all_wines |>
  filter((quality > 6.5) & (alcohol < 132)) |>
  arrange(desc(quality))

# A tibble: 1,206 × 13
   fixed_acidity volatile_acidity citric_acid residual_sugar chlorides
           <dbl>            <dbl>       <dbl>          <dbl>     <dbl>
 1            91             0.27        0.45           10.6     0.035
 2            66             0.36        0.29            1.6     0.021
 3            74             0.24        0.36            2       0.031
 4            69             0.36        0.34            4.2     0.018
 5            71             0.26        0.49            2.2     0.032
 6            62             0.66        0.48            1.2     0.029
 7            62             0.66        0.48            1.2     0.029
 8            68             0.26        0.42            1.7     0.049
 9            67             0.23        0.31            2.1     0.046
10            67             0.23        0.31            2.1     0.046
# ℹ 1,196 more rows
# ℹ 8 more variables: free_sulfur_dioxide <dbl>, total_sulfur_dioxide <dbl>,
#   density <dbl>, pH <dbl>, sulphates <dbl>, alcohol <dbl>, quality <dbl>,
#   type <chr>

The tibble was rearranged by descending quality.

8.

all_wines |>
  filter((quality > 6.5) & (alcohol < 132)) |>
  arrange(desc(quality)) |>
  select(contains("acid"), alcohol, type, quality)

# A tibble: 1,206 × 6
   fixed_acidity volatile_acidity citric_acid alcohol type  quality
           <dbl>            <dbl>       <dbl>   <dbl> <chr>   <dbl>
 1            91             0.27        0.45     104 white       9
 2            66             0.36        0.29     124 white       9
 3            74             0.24        0.36     125 white       9
 4            69             0.36        0.34     127 white       9
 5            71             0.26        0.49     129 white       9
 6            62             0.66        0.48     128 white       8
 7            62             0.66        0.48     128 white       8
 8            68             0.26        0.42     105 white       8
 9            67             0.23        0.31     107 white       8
10            67             0.23        0.31     107 white       8
# ℹ 1,196 more rows

The tibble was subsetted to only include the 6 specified columns.

9.

all_wines |>
  filter((quality > 6.5) & (alcohol < 132)) |>
  arrange(desc(quality)) |>
  select(contains("acid"), alcohol, type, quality) |>
  group_by(quality) |>
  mutate(mean_alc = mean(alcohol), sd_alc = sd(alcohol))

# A tibble: 1,206 × 8
# Groups:   quality [3]
   fixed_acidity volatile_acidity citric_acid alcohol type  quality mean_alc
           <dbl>            <dbl>       <dbl>   <dbl> <chr>   <dbl>    <dbl>
 1            91             0.27        0.45     104 white       9    122. 
 2            66             0.36        0.29     124 white       9    122. 
 3            74             0.24        0.36     125 white       9    122. 
 4            69             0.36        0.34     127 white       9    122. 
 5            71             0.26        0.49     129 white       9    122. 
 6            62             0.66        0.48     128 white       8     94.1
 7            62             0.66        0.48     128 white       8     94.1
 8            68             0.26        0.42     105 white       8     94.1
 9            67             0.23        0.31     107 white       8     94.1
10            67             0.23        0.31     107 white       8     94.1
# ℹ 1,196 more rows
# ℹ 1 more variable: sd_alc <dbl>
…
2.

tbl(con,"Teams") |>
  filter(yearID == 2015) |>
  collect()

# A tibble: 30 × 48
   yearID lgID  teamID franchID divID  Rank     G Ghome     W     L DivWin WCWin
    <int> <chr> <chr>  <chr>    <chr> <int> <int> <int> <int> <int> <chr>  <chr>
 1   2015 NL    ARI    ARI      W         3   162    81    79    83 N      N    
 2   2015 NL    ATL    ATL      E         4   162    81    67    95 N      N    
 3   2015 AL    BAL    BAL      E         3   162    78    81    81 N      N    
 4   2015 AL    BOS    BOS      E         5   162    81    78    84 N      N    
 5   2015 AL    CHA    CHW      C         4   162    81    76    86 N      N    
 6   2015 NL    CHN    CHC      C         3   162    81    97    65 N      Y    
 7   2015 NL    CIN    CIN      C         5   162    81    64    98 N      N    
 8   2015 AL    CLE    CLE      C         3   161    80    81    80 N      N    
 9   2015 NL    COL    COL      W         5   162    81    68    94 N      N    
10   2015 AL    DET    DET      C         5   161    81    74    87 N      N    
# ℹ 20 more rows
# ℹ 36 more variables: LgWin <chr>, WSWin <chr>, R <int>, AB <int>, H <int>,
#   X2B <int>, X3B <int>, HR <int>, BB <int>, SO <int>, SB <int>, CS <int>,
#   HBP <int>, SF <int>, RA <int>, ER <int>, ERA <dbl>, CG <int>, SHO <int>,
#   SV <int>, IPouts <int>, HA <int>, HRA <int>, BBA <int>, SOA <int>, E <int>,
#   DP <int>, FP <dbl>, name <chr>, park <chr>, attendance <int>, BPF <int>,
#   PPF <int>, teamIDBR <chr>, teamIDlahman45 <chr>, teamIDretro <chr>
…
